{
  "global": {},
  "env:development": {},
  "env:test": {},
  "env:production": {},
  "os:android": {},
  "os:blackberry": {},
  "os:ios": {},
  "os:mobileweb": {},
  "os:windows": {},
  "dependencies": {
    "ts.suggestionfield": "*",
    "nl.fokkezb.button": "*"
  }
}